0 0.713370 0.510671 0.003780 0.066640 
0 0.687759 0.509604 0.003687 0.065124 
0 0.524079 0.507484 0.011851 0.081195 
0 0.451984 0.506067 0.014036 0.082639 
0 0.404833 0.515955 0.038627 0.171657 
0 0.119437 0.511716 0.028526 0.150252 
0 0.167026 0.515435 0.040549 0.172150 
