0 0.168579 0.516117 0.024283 0.186258 
0 0.082586 0.549808 0.018787 0.373793 
0 0.899562 0.547695 0.024134 0.405661 
0 0.791707 0.516850 0.019910 0.253440 
0 0.762752 0.512034 0.006303 0.137604 
0 0.437266 0.504921 0.011841 0.056041 
