0 0.398312 0.494998 0.053114 0.183392 
0 0.552495 0.493963 0.061074 0.181817 
0 0.476123 0.494174 0.080834 0.170130 
0 0.344382 0.487393 0.037695 0.194508 
0 0.197901 0.481755 0.075878 0.250352 
0 0.123707 0.486568 0.051904 0.224909 
0 0.281591 0.486325 0.069432 0.244323 
0 0.908295 0.525435 0.044473 0.269751 
0 0.059157 0.532663 0.042376 0.263515 
0 0.596566 0.486126 0.016504 0.172444 
0 0.701401 0.478862 0.040268 0.237711 
0 0.804042 0.492333 0.093170 0.276384 
