0 0.828118 0.526144 0.067903 0.315172 
0 0.692907 0.496430 0.081648 0.116415 
0 0.584310 0.491503 0.028509 0.070368 
0 0.514445 0.495862 0.026326 0.026085 
0 0.828118 0.526144 0.067903 0.315172 
0 0.692907 0.496430 0.081648 0.116415 
0 0.584310 0.491503 0.028509 0.070368 
0 0.514445 0.495862 0.026326 0.026085 
0 0.828118 0.526144 0.067903 0.315172 
0 0.692907 0.496430 0.081648 0.116415 
0 0.584310 0.491503 0.028509 0.070368 
0 0.514445 0.495862 0.026326 0.026085 
0 0.828118 0.526144 0.067903 0.315172 
0 0.692907 0.496430 0.081648 0.116415 
0 0.584310 0.491503 0.028509 0.070368 
0 0.514445 0.495862 0.026326 0.026085 
