0 0.420276 0.512976 0.083482 0.139395 
0 0.272085 0.490901 0.148737 0.506207 
0 0.918585 0.479417 0.022822 0.184998 
0 0.854637 0.494731 0.033731 0.034193 
0 0.420276 0.512976 0.083482 0.139395 
0 0.272085 0.490901 0.148737 0.506207 
0 0.918585 0.479417 0.022822 0.184998 
0 0.854637 0.494731 0.033731 0.034193 
0 0.420276 0.512976 0.083482 0.139395 
0 0.272085 0.490901 0.148737 0.506207 
0 0.918585 0.479417 0.022822 0.184998 
0 0.854637 0.494731 0.033731 0.034193 
0 0.420276 0.512976 0.083482 0.139395 
0 0.272085 0.490901 0.148737 0.506207 
0 0.918585 0.479417 0.022822 0.184998 
0 0.854637 0.494731 0.033731 0.034193 
