0 0.270281 0.529389 0.020124 0.386443 
0 0.169484 0.496552 0.069881 0.111600 
0 0.079255 0.492266 0.023762 0.063579 
0 0.016845 0.496100 0.024644 0.024382 
0 0.270281 0.529389 0.020124 0.386443 
0 0.169484 0.496552 0.069881 0.111600 
0 0.079255 0.492266 0.023762 0.063579 
0 0.016845 0.496100 0.024644 0.024382 
0 0.270281 0.529389 0.020124 0.386443 
0 0.169484 0.496552 0.069881 0.111600 
0 0.079255 0.492266 0.023762 0.063579 
0 0.016845 0.496100 0.024644 0.024382 
0 0.270281 0.529389 0.020124 0.386443 
0 0.169484 0.496552 0.069881 0.111600 
0 0.079255 0.492266 0.023762 0.063579 
0 0.016845 0.496100 0.024644 0.024382 
