0 0.352167 0.500194 0.004348 0.066387 
0 0.372502 0.499438 0.004571 0.067833 
0 0.084049 0.496387 0.029185 0.119293 
0 0.050112 0.495046 0.024656 0.110731 
0 0.894988 0.496510 0.015492 0.062501 
0 0.912918 0.496124 0.014421 0.060911 
0 0.875872 0.496410 0.016005 0.063566 
0 0.929754 0.496907 0.013398 0.059237 
