0 0.805967 0.496161 0.002190 0.037307 
0 0.640363 0.494125 0.024985 0.085158 
0 0.294154 0.502348 0.171810 0.310964 
0 0.805967 0.496161 0.002190 0.037307 
0 0.640363 0.494125 0.024985 0.085158 
0 0.294154 0.502348 0.171810 0.310964 
