0 0.645426 0.486762 0.052724 0.142608 
0 0.162424 0.514744 0.019214 0.098423 
0 0.135219 0.519185 0.030157 0.126445 
0 0.645426 0.486762 0.052724 0.142608 
0 0.162424 0.514744 0.019214 0.098423 
0 0.135219 0.519185 0.030157 0.126445 
0 0.645426 0.486762 0.052724 0.142608 
0 0.162424 0.514744 0.019214 0.098423 
0 0.135219 0.519185 0.030157 0.126445 
