0 0.493560 0.511806 0.051424 0.085091 
0 0.768119 0.501665 0.040928 0.052437 
0 0.493560 0.511806 0.051424 0.085091 
0 0.768119 0.501665 0.040928 0.052437 
0 0.493560 0.511806 0.051424 0.085091 
0 0.768119 0.501665 0.040928 0.052437 
